{
  "compileOnSave": false,
  "angularCompilerOptions": {
    "disableTypeScriptVersionCheck": true
  },
  "compilerOptions": {
    "experimentalDecorators": true,
    "checkJs": true,
    "noEmit": true,
    "baseUrl": "./",
    "lib": [
      "es2018",
      "dom"
    ],
    "paths": {
      "ol": [
        "node_modules/ol/src"
      ],
      "ol/*": [
        "node_modules/ol/src/*"
      ],
      "ol-ext": [
        "node_modules/ol-ext"
      ],
      "ol-ext/*": [
        "node_modules/ol-ext/*"
      ]
    }
  },
  "include": [
    "src/**/*.js",
    "src/app/**/*.ts",
    "projects/**/*.ts",
    "node_modules/ol/**/*.js",
    "node_modules/ol-ext/**/*.js"
  ]
}
